Exploratory Data Analysis and General Cleaning
…
#keep only those columns
cleaned_china <- china[, full_columns]
cleaned_china 

## # A tibble: 259 × 74
##    Record_number Entry_date Study_number Author Quality_flag Contributor Country Region Site_name Site_ID
##            <dbl> <chr>             <dbl> <chr>  <chr>        <chr>       <chr>   <chr>  <chr>     <chr>  
##  1           276 2008-10-24         3653 Wang   Q02          BBL         China   <NA>   Maoersha… CN-MAE…
##  2           277 2008-10-24         3653 Wang   Q02          BBL         China   <NA>   Maoersha… CN-MAE…
##  3           278 2008-10-24         3653 Wang   Q02          BBL         China   <NA>   Maoersha… CN-MAE…
##  4           279 2008-10-24         3653 Wang   Q02          BBL         China   <NA>   Maoersha… CN-MAE…
##  5           280 2008-10-25         3653 Wang   Q02          BBL         China   <NA>   Maoersha… CN-MAE…
##  6           281 2008-10-25         3653 Wang   Q02          BBL         China   <NA>   Maoersha… CN-MAE…
##  7           480 2009-01-13         3675 Jiabi… Q03          BBL         China   <NA>   Changbai… CN-CHM 
##  8          1222 2009-03-26         2686 Lou    Q01          BBL         China   <NA>   Ecologic… CN-ESR…
##  9          1223 2009-03-26         2686 Lou    Q01          BBL         China   <NA>   Ecologic… CN-ESR…
## 10          1224 2009-03-26         2686 Lou    Q01          BBL         China   <NA>   Ecologic… CN-ESR…
## # ℹ 249 more rows
## # ℹ 64 more variables: Study_midyear <dbl>, YearsOfData <dbl>, Latitude <dbl>, Longitude <dbl>,
## #   Elevation <dbl>, Manipulation <chr>, Manipulation_level <chr>, Age_ecosystem <dbl>,
## #   Age_disturbance <dbl>, Species <chr>, Biome <chr>, Ecosystem_type <chr>, Ecosystem_state <chr>,
## #   Leaf_habit <chr>, Stage <chr>, Soil_type <chr>, Soil_drainage <chr>, Soil_BD <dbl>, Soil_CN <dbl>,
## #   Soil_sand <dbl>, Soil_silt <dbl>, Soil_clay <dbl>, MAT <dbl>, MAP <dbl>, PET <dbl>,
## #   Study_temp <dbl>, Study_precip <dbl>, Meas_method <chr>, Collar_height <dbl>, Collar_depth <dbl>, …
…
Rs_median <- cleaned_china %>% group_by(Study_midyear) %>% summarize(Median = median(Rs_annual), High = max(Rs_annual), Min = min(Rs_annual))
Rs_median

## # A tibble: 30 × 4
##    Study_midyear Median   High   Min
##            <dbl>  <dbl>  <dbl> <dbl>
##  1         2000.  581    775   385  
##  2         2000    80.0   80.0  80.0
##  3         2001    79.2   79.2  79.2
##  4         2003  1017   1240   425  
##  5         2004. 1001   1586   578  
##  6         2004   743    992   440  
##  7         2004.  786.  1173   403  
##  8         2005   450.   720   191  
##  9         2006.  824.   851   662  
## 10         2006   530    822   322  
## # ℹ 20 more rows
…
